[
     {"url":"a_marietta", "imgUrl":"a_marietta/who.jpg", "title":"Marietta Moshiashvili", "position": "Managing Partner"}
    ,{"url":"b_mario", "imgUrl":"b_mario/who.jpg", "title":"Mario Maselli", "position": "Managing Partner"}

    ,{"url":"cam", 	 "imgUrl":"cam/who.jpg", 	"title":"Caitlyn MacDonald", "position": "Partner, Head of Investor Relations"}

    ,{"url":"leigh", "imgUrl":"leigh/who.jpg", "title":"Leigh Seidman", "position": "Senior Vice President"}
    
    ,{"url":"zkim", "imgUrl":"zkim/who.jpg", "title":"Kim Garber", "position": "Compliance Consultant"}
]
