[
    {"date": "April 7, 2021"
        ,"title": "Infiniti Energy Services Partners With Upper Bay Infrastructure Partners To Capitalize On Its Solar Projects Pipeline"
        ,"file": "infiniti.pdf"
    },{"date": "Jan 25, 2021"
        ,"title": "Upper Bay Infrastructure Partners Announces Hire of Head of Investor Relations"
        ,"file": "headofIR.pdf"
    },{ "date": "Dec 21, 2020"
        ,"title": "8minute Solar Energy Upsizes Letter of Credit Facility to $350 Million and Welcomes Three Leading Project Finance Banks"
        ,"file": "8minuteNew.pdf"
    },{ "date": "June 01, 2020"
        ,"title": "8minute Solar Energy Secures $225 Million Letter of Credit"
        ,"file": "8minute620.pdf"
    },{"date" :  "April 23, 2020"
        ,"title": "8minute Solar Energy Expands Development Pipeline to 18 Gigawatts with New Solar-Plus-Storage Power Plants"
        ,"file": "8minute2.pdf"
    },{"date" : "January 15, 2020"
        ,"title": "Tidewater Announces New Chief Executive Officer"
        ,"file": "tide.pdf"
    },{"date" : "February 20, 2019"
        ,"title": "Upper Bay Leads Investor Group for the Acquisition of Tidewater Transportation & Terminals"
        ,"file": "Tidewater.pdf"
    },{"date": "December 11, 2018"
        ,"title": "8minutenergy J.P. Morgan and Upper Bay Announce Joint Venture and Over $200 Million in Committed Investment Capital"
        ,"file": "8minute.pdf"
    },{"date": "August 8, 2018"
        ,"title": "US pension fund eyeing direct infrastructure investing"
        ,"file": "US-pension.pdf"
    }
]
